# t (s)	mx ()	my ()	mz ()	B_extx (T)	B_exty (T)	B_extz (T)
0	2.2351742e-08	-4.02765e-06	-0.017184038	0	0	0
0	0.024701916	-2.0650914e-06	-0.01718645	0.001	0	0
0	0.04942631	-1.0746589e-06	-0.017193723	0.002	0	0
0	0.07403979	-5.485199e-07	-0.01720563	0.0030000003	0	0
0	0.09857397	-2.9281364e-07	-0.017223733	0.004	0	0
0	0.1229856	-1.3815588e-07	-0.017247085	0.0049999994	0	0
0	0.1471571	-5.203765e-08	-0.017277725	0.0060000005	0	0
0	0.17119095	-1.2922101e-08	-0.017316073	0.0069999998	0	0
0	0.19494599	5.820766e-09	-0.01736328	0.008	0	0
0	0.21841249	1.1670636e-08	-0.017420834	0.009	0	0
0	0.24162704	1.6822014e-08	-0.017491106	0.009999999	0	0
0	0.2645058	1.7636921e-08	-0.01757489	0.011	0	0
0	0.28709787	1.9179424e-08	-0.017676456	0.012000001	0	0
0	0.3094633	1.5890691e-08	-0.01779842	0.012999998	0	0
0	0.3317229	1.6327249e-08	-0.017946268	0.0139999995	0	0
0	0.3540042	2.2089807e-08	-0.018127527	0.015	0	0
0	0.37693512	1.4901161e-08	-0.01835833	0.016	0	0
0	0.4014469	1.5075784e-08	-0.018670138	0.017000003	0	0
0	0.43311664	9.487849e-09	-0.019223154	0.018	0	0
0	0.97029215	-1.1599527e-06	2.1692951e-12	0.019	0	0
0	0.9707822	4.2091415e-09	2.0193203e-19	0.019999998	0	0
0	0.9712679	8.105417e-09	-1.0950321e-22	0.021	0	0
0	0.9717474	5.640686e-09	4.1196184e-32	0.022	0	0
0	0.9722215	5.9499143e-09	9.616479e-38	0.023	0	0
0	0.9726899	6.5665517e-09	0	0.024000002	0	0
0	0.9731532	8.010829e-09	0	0.025000002	0	0
0	0.9736108	1.0822987e-08	0	0.025999997	0	0
0	0.97406346	6.4537744e-09	0	0.026999999	0	0
0	0.9745111	5.995389e-09	0	0.027999999	0	0
0	0.974954	4.984031e-09	0	0.029	0	0
0	0.975392	7.792551e-09	0	0.03	0	0
0	0.97582537	6.6211214e-09	0	0.031000001	0	0
0	0.9762544	7.545168e-09	0	0.032	0	0
0	0.9766791	7.4578566e-09	0	0.032999996	0	0
0	0.97709936	8.85484e-09	0	0.034000006	0	0
0	0.97751564	8.454663e-09	0	0.035	0	0
0	0.97792786	9.764335e-09	0	0.036	0	0
0	0.9783361	8.89122e-09	0	0.037	0	0
0	0.9787407	8.119969e-09	0	0.038	0	0
0	0.9791413	9.19681e-09	0	0.039	0	0
0	0.9795386	1.0186341e-08	0	0.039999995	0	0
0	0.9799324	1.0404619e-08	0	0.041000005	0	0
0	0.9803229	7.3123374e-09	0	0.042	0	0
0	0.98071015	6.897608e-09	0	0.043000005	0	0
0	0.98109424	7.50515e-09	0	0.044	0	0
0	0.981475	9.651558e-09	0	0.045	0	0
0	0.98185337	6.884875e-09	0	0.046	0	0
0	0.9822285	1.1786142e-08	0	0.046999995	0	0
0	0.98260117	1.1289103e-08	0	0.048000004	0	0
0	0.9829713	1.0883014e-08	0	0.049	0	0
0	0.98333865	9.424184e-09	0	0.050000004	0	0
0	0.9837037	1.1186785e-08	0	0.051	0	0
0	0.9840669	-6.340997e-09	0	0.051999994	0	0
0	0.9844272	9.262294e-09	0	0.053	0	0
0	0.9847858	8.265488e-09	0	0.053999998	0	0
0	0.9851427	1.2747478e-08	0	0.055000003	0	0
0	0.9854977	1.497392e-08	0	0.055999998	0	0
0	0.98585075	1.4755642e-08	0	0.057000004	0	0
0	0.9862024	1.538865e-08	0	0.058	0	0
0	0.98655266	1.6334525e-08	0	0.059000008	0	0
0	0.98690176	1.7676939e-08	0	0.06	0	0
0	0.98724985	2.0161679e-08	0	0.060999997	0	0
0	0.98759675	2.8880095e-08	0	0.062000003	0	0
0	0.98794293	2.051911e-08	0	0.063	0	0
0	0.9882885	2.5413101e-08	0	0.064	0	0
0	0.9886337	2.4276233e-08	0	0.065	0	0
0	0.9889788	2.6280759e-08	0	0.06599999	0	0
0	0.98932433	2.39379e-08	0	0.067	0	0
0	0.98966885	4.193862e-08	0	0.06800001	0	0
0	0.9900134	3.9157385e-08	0	0.069	0	0
0	0.9903429	7.8645826e-08	0	0.07	0	0
0	0.99044317	3.1286618e-10	0	0.071	0	0
0	0.9905219	1.1641532e-09	0	0.072	0	0
0	0.99059975	-5.493348e-09	0	0.07300001	0	0
0	0.990677	-4.627509e-09	0	0.074	0	0
0	0.99075335	-1.0506483e-08	0	0.074999996	0	0
0	0.99082917	-6.199116e-09	0	0.076	0	0
0	0.9909043	-6.686605e-09	0	0.077	0	0
0	0.99097866	-2.8157956e-09	0	0.078	0	0
0	0.9910524	-4.2346073e-09	0	0.079	0	0
0	0.9911254	-3.5652192e-09	0	0.07999999	0	0
0	0.99119776	-1.0841177e-09	0	0.081	0	0
0	0.9912695	-2.2628228e-09	0	0.08200001	0	0
0	0.9913406	-7.421477e-10	0	0.083	0	0
0	0.991411	-1.9354047e-09	0	0.084	0	0
0	0.99148077	-9.313226e-10	0	0.08499999	0	0
0	0.99154997	-2.044544e-09	0	0.08600001	0	0
0	0.9916185	-1.7316779e-09	0	0.087000005	0	0
0	0.99168634	-1.8044375e-09	0	0.088	0	0
0	0.99175376	-3.783498e-10	0	0.088999994	0	0
0	0.9918204	9.677024e-10	0	0.09	0	0
0	0.99188644	1.6007107e-10	0	0.091000006	0	0
0	0.99195194	-4.7293724e-10	0	0.092	0	0
0	0.99201685	1.7389539e-09	0	0.093	0	0
0	0.9920812	1.7462298e-10	0	0.09399999	0	0
0	0.9921448	1.033186e-09	0	0.095	0	0
0	0.992208	1.4551915e-10	0	0.09600001	0	0
0	0.99227047	8.8766683e-10	0	0.097	0	0
0	0.99233246	-1.1059456e-09	0	0.098	0	0
0	0.992394	-2.6557245e-09	0	0.09899999	0	0
0	0.99245477	-1.9135769e-09	0	0.10000001	0	0
0	0.99239403	-2.8303475e-09	0	0.09899999	0	0
0	0.99233264	-3.6525307e-09	0	0.098	0	0
0	0.99227065	-1.0186341e-09	0	0.097	0	0
0	0.99220806	-1.1714292e-09	0	0.09600001	0	0
0	0.99214494	9.313226e-10	0	0.095	0	0
0	0.9920812	1.891749e-09	0	0.09399999	0	0
0	0.992017	2.240995e-09	0	0.093	0	0
0	0.9919521	-5.0931703e-11	0	0.092	0	0
0	0.99188656	1.4842954e-09	0	0.091000006	0	0
0	0.9918206	-9.240466e-10	0	0.09	0	0
0	0.9917538	-2.1245796e-09	0	0.088999994	0	0
0	0.9916866	1.2369128e-09	0	0.088	0	0
0	0.99161863	-1.5061232e-09	0	0.087000005	0	0
0	0.99155015	-1.8189894e-09	0	0.08600001	0	0
0	0.9914809	-1.3387762e-09	0	0.08499999	0	0
0	0.9914112	-2.1827873e-09	0	0.084	0	0
0	0.9913407	-5.2386895e-10	0	0.083	0	0
0	0.9912696	2.401066e-10	0	0.08200001	0	0
0	0.9911978	1.1859811e-09	0	0.081	0	0
0	0.99112546	-2.2118911e-09	0	0.07999999	0	0
0	0.9910524	-1.4042598e-09	0	0.079	0	0
0	0.99097866	4.0745363e-10	0	0.078	0	0
0	0.9909043	-8.1490725e-10	0	0.077	0	0
0	0.99082917	-1.1277734e-09	0	0.076	0	0
0	0.9907534	-5.2386895e-09	0	0.074999996	0	0
0	0.990677	-2.2555469e-09	0	0.074	0	0
0	0.9905998	-1.2660166e-09	0	0.07300001	0	0
0	0.99052197	-2.3064786e-09	0	0.072	0	0
0	0.99044335	-3.4779077e-09	0	0.071	0	0
0	0.9903641	-3.5142875e-09	0	0.07	0	0
0	0.99028414	-3.0559022e-10	0	0.069	0	0
0	0.9902034	-9.968062e-10	0	0.06800001	0	0
0	0.99012184	-3.0049705e-09	0	0.067	0	0
0	0.99003965	-2.9685907e-09	0	0.06599999	0	0
0	0.9899567	-6.0899765e-09	0	0.065	0	0
0	0.9898729	-3.8780854e-09	0	0.064	0	0
0	0.9897885	-7.239578e-09	0	0.063	0	0
0	0.9897032	-3.936293e-09	0	0.062000003	0	0
0	0.98961717	-4.2418833e-09	0	0.060999997	0	0
0	0.9895303	-3.4124241e-09	0	0.06	0	0
0	0.9894427	-2.8740033e-09	0	0.059000008	0	0
0	0.98935425	-2.4592737e-09	0	0.058	0	0
0	0.9892651	-1.5133992e-09	0	0.057000004	0	0
0	0.98917496	-1.5716068e-09	0	0.055999998	0	0
0	0.9890841	-2.590241e-09	0	0.055000003	0	0
0	0.98899245	-8.731149e-10	0	0.053999998	0	0
0	0.98889995	-8.8766683e-10	0	0.053	0	0
0	0.98880655	-2.0372681e-09	0	0.051999994	0	0
0	0.98871243	-9.895302e-10	0	0.051	0	0
0	0.98861736	-2.7939677e-09	0	0.050000004	0	0
0	0.98852134	1.3096724e-10	0	0.049	0	0
0	0.9884245	-1.3096724e-10	0	0.048000004	0	0
0	0.9883268	5.0931703e-10	0	0.046999995	0	0
0	0.9882282	2.05182e-09	0	0.046	0	0
0	0.98812866	1.193257e-09	0	0.045	0	0
0	0.9880283	-4.3364707e-09	0	0.044	0	0
0	0.98792696	-1.2369128e-09	0	0.043000005	0	0
0	0.9878247	-5.2095857e-09	0	0.042	0	0
0	0.9877215	-3.7107384e-09	0	0.041000005	0	0
0	0.98761743	-8.527422e-09	0	0.039999995	0	0
0	0.9875123	-1.0506483e-08	0	0.039	0	0
0	0.98740625	-9.298674e-09	0	0.038	0	0
0	0.9872992	-1.3562385e-08	0	0.037	0	0
0	0.98719114	-2.2380846e-08	0	0.036	0	0
0	0.9870822	-2.2308086e-08	0	0.035	0	0
0	0.98697215	-3.6976417e-08	0	0.034000006	0	0
0	0.98686117	-5.3070835e-08	0	0.032999996	0	0
0	0.9762544	2.2745371e-07	0	0.032	0	0
0	0.97582716	1.0171789e-08	0	0.031000001	0	0
0	0.9753937	1.0193617e-08	0	0.03	0	0
0	0.9749556	6.1190804e-09	0	0.029	0	0
0	0.97451293	7.348717e-09	0	0.027999999	0	0
0	0.97406524	8.752977e-09	0	0.026999999	0	0
0	0.97361255	9.618816e-09	0	0.025999997	0	0
0	0.9731548	7.2832336e-09	0	0.025000002	0	0
0	0.97269166	5.7916623e-09	0	0.024000002	0	0
0	0.9722234	4.802132e-09	0	0.023	0	0
0	0.9717493	8.092684e-09	0	0.022	0	0
0	0.97126955	7.2504918e-09	0	0.021	0	0
0	0.97078407	7.23594e-09	0	0.019999998	0	0
0	0.9702925	8.083134e-09	0	0.019	0	0
0	0.96979487	4.971298e-09	0	0.018	0	0
0	0.969291	4.425601e-09	0	0.017000003	0	0
0	0.9687802	3.7125574e-09	0	0.016	0	0
0	0.96826303	5.0495146e-09	0	0.015	0	0
0	0.9677389	3.758032e-09	0	0.0139999995	0	0
0	0.9672079	4.6893547e-09	0	0.012999998	0	0
0	0.9666696	5.2787072e-09	0	0.012000001	0	0
0	0.9661239	7.21775e-09	0	0.011	0	0
0	0.96557057	5.285983e-09	0	0.009999999	0	0
0	0.96500945	1.5897967e-09	0	0.009	0	0
0	0.9644401	5.180482e-09	0	0.008	0	0
0	0.96386266	8.592906e-09	0	0.0069999998	0	0
0	0.9632767	2.3137545e-09	0	0.0060000005	0	0
0	0.9626821	6.0899765e-09	0	0.0049999994	0	0
0	0.9620783	3.3469405e-09	0	0.004	0	0
0	0.9614655	3.245077e-09	0	0.0030000003	0	0
0	0.960843	2.6120688e-09	0	0.002	0	0
0	0.960211	4.8603397e-09	0	0.001	0	0
0	0.9595685	6.1118044e-09	0	-7.632783e-17	0	0
0	0.95891607	4.2200554e-10	0	-0.001	0	0
0	0.95825285	2.575689e-09	0	-0.002	0	0
0	0.95757824	9.749783e-10	0	-0.0030000003	0	0
0	0.95689297	-1.4551915e-11	0	-0.004	0	0
0	0.9561959	4.642061e-09	0	-0.0049999994	0	0
0	0.95548666	4.278263e-09	0	-0.0060000005	0	0
0	0.95476514	3.0122465e-09	0	-0.0069999998	0	0
0	0.9540309	5.2386895e-10	0	-0.008	0	0
0	0.9532833	4.292815e-09	0	-0.009	0	0
0	0.95252216	1.2805685e-09	0	-0.009999999	0	0
0	0.9517471	1.36788e-09	0	-0.011	0	0
0	0.95095766	1.891749e-09	0	-0.012000001	0	0
0	0.9501532	2.1682354e-09	0	-0.012999998	0	0
0	0.9493331	-2.0372681e-10	0	-0.0139999995	0	0
0	0.9484971	2.0372681e-10	0	-0.015	0	0
0	0.9476446	1.2951205e-09	0	-0.016	0	0
0	0.94677496	8.58563e-10	0	-0.017000003	0	0
0	0.94588774	9.895302e-10	0	-0.018	0	0
0	0.9449819	4.947651e-10	0	-0.019	0	0
0	0.94405717	-3.1432137e-09	0	-0.019999998	0	0
0	0.94311285	5.529728e-10	0	-0.021	0	0
0	0.9421478	1.0768417e-09	0	-0.022	0	0
0	0.94116175	-9.895302e-10	0	-0.023	0	0
0	0.9401538	6.4028427e-10	0	-0.024000002	0	0
0	0.9391229	-6.4028427e-10	0	-0.025000002	0	0
0	0.93806815	1.7462298e-10	0	-0.025999997	0	0
0	0.93698823	2.910383e-10	0	-0.026999999	0	0
0	0.93588346	-1.6298145e-09	0	-0.027999999	0	0
0	0.9347513	-1.4842954e-09	0	-0.029	0	0
0	0.9335916	-3.608875e-09	0	-0.03	0	0
0	0.9324024	-4.307367e-09	0	-0.031000001	0	0
0	0.9311828	-1.717126e-09	0	-0.032	0	0
0	0.9299314	-5.180482e-09	0	-0.032999996	0	0
0	0.9286469	-2.8521754e-09	0	-0.034000006	0	0
0	0.92732763	-7.5961e-09	0	-0.035	0	0
0	0.92597187	-2.590241e-09	0	-0.036	0	0
0	0.9245774	-3.5797711e-09	0	-0.037	0	0
0	0.9231439	-9.720679e-09	0	-0.038	0	0
0	0.92166764	-2.9685907e-09	0	-0.039	0	0
0	0.9201475	-3.929017e-09	0	-0.039999995	0	0
0	0.9185803	-6.170012e-09	0	-0.041000005	0	0
0	0.9169646	-6.8394e-09	0	-0.042	0	0
0	0.91529655	-1.0011718e-08	0	-0.043000005	0	0
0	0.913574	-8.440111e-09	0	-0.044	0	0
0	0.91179323	-9.807991e-09	0	-0.045	0	0
0	0.9099513	-1.1379598e-08	0	-0.046	0	0
0	0.90804404	-7.2759576e-09	0	-0.046999995	0	0
0	0.90606743	-6.519258e-09	0	-0.048000004	0	0
0	0.90401673	-1.05646905e-08	0	-0.049	0	0
0	0.9018874	-1.0593794e-08	0	-0.050000004	0	0
0	0.8996734	-1.207809e-08	0	-0.051	0	0
0	0.897369	-1.03900675e-08	0	-0.051999994	0	0
0	0.89496756	-1.3504177e-08	0	-0.053	0	0
0	0.8924612	-1.6152626e-08	0	-0.053999998	0	0
0	0.88984185	-1.8335413e-08	0	-0.055000003	0	0
0	0.8870998	-1.7520506e-08	0	-0.055999998	0	0
0	0.8842241	-1.9324943e-08	0	-0.057000004	0	0
0	0.8812026	-1.9004801e-08	0	-0.058	0	0
0	0.8780218	-1.8830178e-08	0	-0.059000008	0	0
0	0.87466514	-2.2497261e-08	0	-0.06	0	0
0	0.8711135	-2.4214387e-08	0	-0.060999997	0	0
0	0.86734533	-2.3457687e-08	0	-0.062000003	0	0
0	0.8633357	-2.1100277e-08	0	-0.063	0	0
0	0.859051	-2.4941983e-08	0	-0.064	0	0
0	0.85445726	-2.2468157e-08	0	-0.065	0	0
0	0.8495034	-2.1915184e-08	0	-0.06599999	0	0
0	0.84413534	-2.1944288e-08	0	-0.067	0	0
0	0.8382741	-2.1915184e-08	0	-0.06800001	0	0
0	0.83182514	-1.952867e-08	0	-0.069	0	0
0	0.82465297	-1.9266736e-08	0	-0.07	0	0
0	0.8165684	-1.9994332e-08	0	-0.071	0	0
0	0.8072872	-1.4202669e-08	0	-0.072	0	0
0	0.79633796	-1.0448275e-08	0	-0.07300001	0	0
0	0.78283954	-1.5541445e-08	0	-0.074	0	0
0	0.76475465	-2.066372e-08	0	-0.074999996	0	0
0	0.7310928	-4.1240128e-08	0	-0.076	0	0
0	-0.9909042	-1.5832484e-08	0	-0.077	0	0
0	-0.99097866	-1.4370016e-08	0	-0.078	0	0
0	-0.9910523	-1.1954398e-08	0	-0.079	0	0
0	-0.99112546	-1.1779775e-08	0	-0.07999999	0	0
0	-0.9911977	-8.294592e-09	0	-0.081	0	0
0	-0.99126947	-6.2645995e-09	0	-0.08200001	0	0
0	-0.99134064	-6.2864274e-09	0	-0.083	0	0
0	-0.99141103	-5.638867e-09	0	-0.084	0	0
0	-0.9914808	-5.835318e-09	0	-0.08499999	0	0
0	-0.99155	-2.6557245e-09	0	-0.08600001	0	0
0	-0.9916185	-1.906301e-09	0	-0.087000005	0	0
0	-0.99168646	-2.7212081e-09	0	-0.088	0	0
0	-0.9917537	-4.7439244e-09	0	-0.088999994	0	0
0	-0.9918204	-3.587047e-09	0	-0.09	0	0
0	-0.9918865	-4.4383341e-10	0	-0.091000006	0	0
0	-0.99195206	-8.0035534e-10	0	-0.092	0	0
0	-0.99201685	-2.910383e-09	0	-0.093	0	0
0	-0.9920812	-2.4592737e-09	0	-0.09399999	0	0
0	-0.9921449	-1.869921e-09	0	-0.095	0	0
0	-0.992208	2.1100277e-10	0	-0.09600001	0	0
0	-0.99227047	-1.7389539e-09	0	-0.097	0	0
0	-0.99233246	-2.1827873e-11	0	-0.098	0	0
0	-0.992394	-1.6661943e-09	0	-0.09899999	0	0
0	-0.9924547	-2.2555469e-10	0	-0.10000001	0	0
0	-0.99239403	9.313226e-10	0	-0.09899999	0	0
0	-0.99233264	2.5538611e-09	0	-0.098	0	0
0	-0.99227065	-8.8039087e-10	0	-0.097	0	0
0	-0.99220806	-6.693881e-10	0	-0.09600001	0	0
0	-0.99214494	4.1472958e-10	0	-0.095	0	0
0	-0.9920812	-1.8335413e-09	0	-0.09399999	0	0
0	-0.992017	-1.2732926e-09	0	-0.093	0	0
0	-0.9919521	-1.6007107e-10	0	-0.092	0	0
0	-0.99188656	-2.6702764e-09	0	-0.091000006	0	0
0	-0.9918206	1.7462298e-09	0	-0.09	0	0
0	-0.9917538	-1.4551915e-11	0	-0.088999994	0	0
0	-0.9916866	4.656613e-10	0	-0.088	0	0
0	-0.99161863	1.0622898e-09	0	-0.087000005	0	0
0	-0.99155015	-2.2846507e-09	0	-0.08600001	0	0
0	-0.99148095	1.7753337e-09	0	-0.08499999	0	0
0	-0.9914112	-1.2369128e-10	0	-0.084	0	0
0	-0.9913407	7.057679e-10	0	-0.083	0	0
0	-0.9912696	1.8480932e-09	0	-0.08200001	0	0
0	-0.9911979	-3.739842e-09	0	-0.081	0	0
0	-0.99112546	1.5861588e-09	0	-0.07999999	0	0
0	-0.9910523	2.3283064e-09	0	-0.079	0	0
0	-0.99097866	1.6225385e-09	0	-0.078	0	0
0	-0.99090433	9.458745e-10	0	-0.077	0	0
0	-0.99082917	1.4697434e-09	0	-0.076	0	0
0	-0.9907534	2.9394869e-09	0	-0.074999996	0	0
0	-0.990677	-1.5206751e-09	0	-0.074	0	0
0	-0.9905998	-3.0267984e-09	0	-0.07300001	0	0
0	-0.99052197	-9.240466e-10	0	-0.072	0	0
0	-0.99044335	-1.1787051e-09	0	-0.071	0	0
0	-0.99036413	-2.0227162e-09	0	-0.07	0	0
0	-0.99028414	-1.8189894e-09	0	-0.069	0	0
0	-0.9902034	1.2951205e-09	0	-0.06800001	0	0
0	-0.99012184	1.869921e-09	0	-0.067	0	0
0	-0.9900397	2.5538611e-09	0	-0.06599999	0	0
0	-0.9899567	3.8780854e-09	0	-0.065	0	0
0	-0.98987293	5.8789738e-09	0	-0.064	0	0
0	-0.9897885	6.6356733e-09	0	-0.063	0	0
0	-0.9897032	6.039045e-09	0	-0.062000003	0	0
0	-0.9896171	8.018105e-09	0	-0.060999997	0	0
0	-0.9895303	3.594323e-09	0	-0.06	0	0
0	-0.98944265	5.0931703e-09	0	-0.059000008	0	0
0	-0.98935425	4.976755e-09	0	-0.058	0	0
0	-0.9892651	5.5879354e-09	0	-0.057000004	0	0
0	-0.98917496	6.853952e-09	0	-0.055999998	0	0
0	-0.9890841	8.993084e-09	0	-0.055000003	0	0
0	-0.98899245	1.0972144e-08	0	-0.053999998	0	0
0	-0.98889995	1.0652002e-08	0	-0.053	0	0
0	-0.98880655	1.3882527e-08	0	-0.051999994	0	0
0	-0.9887125	1.4770194e-08	0	-0.051	0	0
0	-0.98861724	1.7258571e-08	0	-0.050000004	0	0
0	-0.98852134	1.997978e-08	0	-0.049	0	0
0	-0.9884245	2.5771442e-08	0	-0.048000004	0	0
0	-0.9883268	2.9060175e-08	0	-0.046999995	0	0
0	-0.98822826	3.547757e-08	0	-0.046	0	0
0	-0.9881287	4.4281478e-08	0	-0.045	0	0
0	-0.9880283	5.5442797e-08	0	-0.044	0	0
0	-0.987927	7.399649e-08	0	-0.043000005	0	0
0	-0.9878247	8.9930836e-08	0	-0.042	0	0
0	-0.98772156	1.17346644e-07	0	-0.041000005	0	0
0	-0.98761743	1.5340629e-07	0	-0.039999995	0	0
0	-0.98751235	2.0151492e-07	0	-0.039	0	0
0	-0.9874062	2.6808993e-07	0	-0.038	0	0
0	-0.98729926	3.5544508e-07	0	-0.037	0	0
0	-0.98719114	4.783651e-07	0	-0.036	0	0
0	-0.9870822	6.558839e-07	0	-0.035	0	0
0	-0.98697215	9.1659604e-07	0	-0.034000006	0	0
0	-0.9766799	2.0272782e-06	0	-0.032999996	0	0
0	-0.97625625	1.4413672e-08	0	-0.032	0	0
0	-0.9758273	4.634785e-09	0	-0.031000001	0	0
0	-0.9753938	7.55972e-09	0	-0.03	0	0
0	-0.97495574	5.522452e-09	0	-0.029	0	0
0	-0.9745128	4.0454324e-09	0	-0.027999999	0	0
0	-0.9740652	7.3050614e-09	0	-0.026999999	0	0
0	-0.9736126	6.7448127e-09	0	-0.025999997	0	0
0	-0.9731547	7.3123374e-09	0	-0.025000002	0	0
0	-0.9726918	7.6361175e-09	0	-0.024000002	0	0
0	-0.9722233	6.7593646e-09	0	-0.023	0	0
0	-0.9717493	8.487405e-09	0	-0.022	0	0
0	-0.97126967	6.9267116e-09	0	-0.021	0	0
0	-0.97078407	6.004484e-09	0	-0.019999998	0	0
0	-0.97029257	7.59519e-09	0	-0.019	0	0
0	-0.9697948	5.840775e-09	0	-0.018	0	0
0	-0.9692907	4.7257345e-09	0	-0.017000003	0	0
0	-0.9687802	4.30191e-09	0	-0.016	0	0
0	-0.96826315	5.7116267e-09	0	-0.015	0	0
0	-0.967739	8.480129e-09	0	-0.0139999995	0	0
0	-0.9672079	4.9149094e-09	0	-0.012999998	0	0
0	-0.9666696	6.9194357e-09	0	-0.012000001	0	0
0	-0.966124	9.564246e-09	0	-0.011	0	0
0	-0.9655706	6.9339876e-09	0	-0.009999999	0	0
0	-0.9650094	4.80577e-09	0	-0.009	0	0
0	-0.9644401	4.642061e-09	0	-0.008	0	0
0	-0.9638628	4.9258233e-09	0	-0.0069999998	0	0
0	-0.96327674	4.809408e-09	0	-0.0060000005	0	0
0	-0.96268207	5.304173e-09	0	-0.0049999994	0	0
0	-0.96207833	5.7189027e-09	0	-0.004	0	0
0	-0.9614655	1.877197e-09	0	-0.0030000003	0	0
0	-0.96084297	4.314643e-09	0	-0.002	0	0
0	-0.9602109	5.4424163e-09	0	-0.001	0	0
0	-0.9595686	4.278263e-09	0	7.632783e-17	0	0
0	-0.95891595	3.8344297e-09	0	0.001	0	0
0	-0.95825285	2.6921043e-09	0	0.002	0	0
0	-0.95757854	4.7148205e-09	0	0.0030000003	0	0
0	-0.9568931	2.3428584e-09	0	0.004	0	0
0	-0.9561958	2.2846507e-09	0	0.0049999994	0	0
0	-0.95548666	-9.895302e-10	0	0.0060000005	0	0
0	-0.9547651	6.8394e-10	0	0.0069999998	0	0
0	-0.9540309	-7.2759576e-11	0	0.008	0	0
0	-0.9532833	2.401066e-09	0	0.009	0	0
0	-0.9525224	4.0308805e-09	0	0.009999999	0	0
0	-0.9517472	2.9394869e-09	0	0.011	0	0
0	-0.95095766	1.1350494e-09	0	0.012000001	0	0
0	-0.950153	3.783498e-09	0	0.012999998	0	0
0	-0.9493332	4.3655746e-10	0	0.0139999995	0	0
0	-0.9484971	2.2846507e-09	0	0.015	0	0
0	-0.9476445	2.9685907e-09	0	0.016	0	0
0	-0.9467749	1.1350494e-09	0	0.017000003	0	0
0	-0.94588745	3.754394e-09	0	0.018	0	0
0	-0.9449817	2.8085196e-09	0	0.019	0	0
0	-0.9440571	-1.193257e-09	0	0.019999998	0	0
0	-0.94311255	-9.604264e-10	0	0.021	0	0
0	-0.942148	-3.0267984e-09	0	0.022	0	0
0	-0.9411619	1.4551915e-10	0	0.023	0	0
0	-0.94015336	2.8521754e-09	0	0.024000002	0	0
0	-0.9391229	-9.0221874e-10	0	0.025000002	0	0
0	-0.9380683	-3.5215635e-09	0	0.025999997	0	0
0	-0.9369886	-1.9790605e-09	0	0.026999999	0	0
0	-0.9358834	-9.895302e-10	0	0.027999999	0	0
0	-0.93475145	-3.259629e-09	0	0.029	0	0
0	-0.9335916	-4.5110937e-09	0	0.03	0	0
0	-0.9324024	-1.36788e-09	0	0.031000001	0	0
0	-0.9311822	-5.326001e-09	0	0.032	0	0
0	-0.92993134	-1.7462298e-09	0	0.032999996	0	0
0	-0.9286468	-5.7334546e-09	0	0.034000006	0	0
0	-0.9273275	-6.1118044e-09	0	0.035	0	0
0	-0.92597157	-6.1409082e-09	0	0.036	0	0
0	-0.92457795	-9.022187e-09	0	0.037	0	0
0	-0.9231441	-4.2491592e-09	0	0.038	0	0
0	-0.92166793	-5.995389e-09	0	0.039	0	0
0	-0.9201473	-6.4610504e-09	0	0.039999995	0	0
0	-0.9185804	-4.4237822e-09	0	0.041000005	0	0
0	-0.9169647	-9.720679e-09	0	0.042	0	0
0	-0.9152953	-1.1204975e-08	0	0.043000005	0	0
0	-0.9135739	-9.57516e-09	0	0.044	0	0
0	-0.9117935	-9.138603e-09	0	0.045	0	0
0	-0.90995145	-1.31258275e-08	0	0.046	0	0
0	-0.9080442	-8.236384e-09	0	0.046999995	0	0
0	-0.9060676	-1.2892997e-08	0	0.048000004	0	0
0	-0.90401673	-1.1496013e-08	0	0.049	0	0
0	-0.9018874	-9.895302e-09	0	0.050000004	0	0
0	-0.8996736	-1.34750735e-08	0	0.051	0	0
0	-0.8973692	-1.3271347e-08	0	0.051999994	0	0
0	-0.8949682	-1.6647391e-08	0	0.053	0	0
0	-0.89246106	-1.4231773e-08	0	0.053999998	0	0
0	-0.88984185	-1.641456e-08	0	0.055000003	0	0
0	-0.8871001	-1.618173e-08	0	0.055999998	0	0
0	-0.8842238	-1.9819709e-08	0	0.057000004	0	0
0	-0.8812024	-1.8189894e-08	0	0.058	0	0
0	-0.8780218	-2.1682354e-08	0	0.059000008	0	0
0	-0.8746649	-1.5104888e-08	0	0.06	0	0
0	-0.8711133	-2.6862836e-08	0	0.060999997	0	0
0	-0.86734587	-2.05182e-08	0	0.062000003	0	0
0	-0.8633359	-2.5058398e-08	0	0.063	0	0
0	-0.85905206	-2.363231e-08	0	0.064	0	0
0	-0.8544558	-2.6717316e-08	0	0.065	0	0
0	-0.84950393	-2.5320332e-08	0	0.06599999	0	0
0	-0.844133	-1.9004801e-08	0	0.067	0	0
0	-0.83827496	-2.3428584e-08	0	0.06800001	0	0
0	-0.8318267	-1.8335413e-08	0	0.069	0	0
0	-0.82465446	-1.6618287e-08	0	0.07	0	0
0	-0.81656873	-1.48429535e-08	0	0.071	0	0
0	-0.80728656	-1.6501872e-08	0	0.072	0	0
0	-0.79633677	-2.1362212e-08	0	0.07300001	0	0
0	-0.78283703	-1.5861588e-08	0	0.074	0	0
0	-0.76475525	-2.0227162e-08	0	0.074999996	0	0
0	-0.73108804	-4.48199e-08	0	0.076	0	0
